{
  "type": "service_account",
  "project_id": "pc-api-6527761194909774797-959",
  "private_key_id": "82739734ce5b6e287918425e969624a8bb50e3d9",
  "private_key": "-----BEGIN PRIVATE KEY-----\nMIIEvQIBADANBgkqhkiG9w0BAQEFAASCBKcwggSjAgEAAoIBAQDPOcHONyt0OTms\n/qVZEI837Ol9voLv9LFsjSue+qabsj5UffcjSBJ9SYQrtmfLpnG0mW8sOBvjpXh/\neESuYQs3QH2zK+nR20kFrmW2vkKgHguFnvrx60u5HtOtnqCqP0j9ge0EUpBFxAJu\nsM03ApSmH/Nwcq+pUA9/FP17IO5c/Mh0rwnH17b8e2aYKBHfsyq7MSS6Hj90Te4c\nQONGZO14lGMnLfiVxLGDlo6IBMWb+3w7TsPcEheMgfG/RFuKnXyPYB5nCnKhth05\nuivL7qg/U3c/oM/auqOpz8slXt0OcNhiB99XbIob2Df5axrI/LMc0yT8YO3WEMbi\nZwilC99tAgMBAAECggEAGlU0k4ffNb2v3pPdXxwDlw+7/AahjOyDP1ARIvqnAVH9\nKa94IDugXdthuExNlEtqV5DH186pfJwiW9BkqeQbEMJZNtN1uv0qolYvBrHWtZIb\n1LcHHIbR8IxCSeXGdNvl4pEIFWyIeNUXmglNipgBW7rjrH5mZBWQYo3ASE0+/QHH\nelFZkRx2MXIPg9rtae8hJJpO6iB3wnund6XHu1/V4DoS+HYm5xumf9tVcFuBjoNX\nphoPALZlVgnB9niQfuqUunHmcqoVq2+ZyILDfbVNjwlMpBXPE2YQupP6jpElbMKq\nfMIRxdDEz6eKpFQDE4o5bm9DrUrT2KJonyU/xd3U4QKBgQD/8nTgckOlYjt8bCcD\nYQQB1Ou8WmQvKix2DuBhqTIq8GQM3Kh7BF3iOFVJYASF87O1YLb1ExErYwO3rCnF\nQs/7ZSNUCPRc96mNyuFPKY8edT9ez2Cj5bwDGx6ed4/sAMgbLOwooEyrQli7JUKQ\n5dXdqCyXhjnXYxeIEKhx3Mi0EwKBgQDPRLjvd9JOp4V61dujXxEvq6L+fj1TVZV7\nZMMjZGeX/IJgDML9SIgVBtVlQgoGydIJ8ecVCEjKVck7TBQ5lejvbWpB/S2us3pT\nLgf0eUfUajSwfu4vHeehRn5bkibbehsdIghU1//SDIPX8fSrGZUZEAyLG7N4tau+\nKCB/UwiOfwKBgARYwMVjC2UOowX87DixeBjz3cEII/VtGO40WHkwH2r9RCW3xaC5\nNUL3Q/OIDuubdOzapKDK3xrGhrSi1t7DwLZ7RDtUH5pIlneS/3qRsR2KTjY0/WYr\nK6M93apBS49tf/h+LdCO0F6ENO+QtW2yiYxHI+K649aVlzu3VLUCU+JDAoGAXUZr\nB3Ff1n+zJR1a04Gz5UUTe/3psTgBpl8pJiNIL3C2Z202zu82Nmg13nTCuF1YxZr0\nSFXLFCtY/PN24pdhFWai/AFo7obclNRRRibSOXh2L7tfixqlI8HqmWEDVZ/01b58\nC1qNSMTTDHpZhipkG7xKOMwFj1wKZu/99+6xGhcCgYEAk1Kmeyq5q0npu89KngqP\nZI7Zk6in3FAOjN2iTvJLdpfQyfV7mnPYnWwJjJrri51oA7WwsLn/A8JkF9wqHCku\nS2fX7onXmXz4ZJ8r0QiLy8psd17fFgG5PlOrATlLBF7tpNkxnhdkt5XrpPtCtL5K\nq7yYAvpDv+UQ3qI1s5cohrw=\n-----END PRIVATE KEY-----\n",
  "client_email": "mobiledev@pc-api-6527761194909774797-959.iam.gserviceaccount.com",
  "client_id": "106472683145997948940",
  "auth_uri": "https://accounts.google.com/o/oauth2/auth",
  "token_uri": "https://oauth2.googleapis.com/token",
  "auth_provider_x509_cert_url": "https://www.googleapis.com/oauth2/v1/certs",
  "client_x509_cert_url": "https://www.googleapis.com/robot/v1/metadata/x509/mobiledev%40pc-api-6527761194909774797-959.iam.gserviceaccount.com"
}
