%YAML 1.1
%TAG !u! tag:unity3d.com,2011:
--- !u!114 &11400000
MonoBehaviour:
  m_ObjectHideFlags: 0
  m_CorrespondingSourceObject: {fileID: 0}
  m_PrefabInstance: {fileID: 0}
  m_PrefabAsset: {fileID: 0}
  m_GameObject: {fileID: 0}
  m_Enabled: 1
  m_EditorHideFlags: 0
  m_Script: {fileID: 11500000, guid: 5dd278f5e9688a1408f9865541cb3e98, type: 3}
  m_Name: Level_1_SpawnData
  m_EditorClassIdentifier: 
  prefab: {fileID: -5767299733318240923, guid: af67705ed6ee0df499c6446be1e22e00, type: 3}
  spawnTime: 3
